<?xml version="1.0" ?>
<sdf version="1.5">
    <world name="grader_world">
        <scene>
            <ambient>0.01 0.01 0.01 1.0</ambient>
            <sky>
                <clouds>
                    <speed>12</speed>
                </clouds>
            </sky>
            <shadows>1</shadows>
        </scene>

        <include>
            <uri>model://sun</uri>
        </include>

        <include>
            <uri>model://ground</uri>
        </include>

        <include>
            <uri>model://ground_plane</uri>
        </include>

    </world>
</sdf>